%YAML 1.1
%TAG !u! tag:unity3d.com,2011:
--- !u!21 &2100000
Material:
  serializedVersion: 6
  m_ObjectHideFlags: 0
  m_CorrespondingSourceObject: {fileID: 0}
  m_PrefabInternal: {fileID: 0}
  m_Name: Mon02
  m_Shader: {fileID: 10708, guid: 0000000000000000f000000000000000, type: 0}
  m_ShaderKeywords: 
  m_LightmapFlags: 4
  m_EnableInstancingVariants: 0
  m_DoubleSidedGI: 0
  m_CustomRenderQueue: -1
  stringTagMap: {}
  disabledShaderPasses: []
  m_SavedProperties:
    serializedVersion: 3
    m_TexEnvs:
    - _MainTex:
        m_Texture: {fileID: 2800000, guid: 9c4e8d291e6e6254993913df7931dceb, type: 3}
        m_Scale: {x: 1, y: 1}
        m_Offset: {x: 0, y: 0}
    m_Floats:
    - _Cutoff: 0.5
    - _InvFade: 1
    - _Shininess: 0.069550954
    m_Colors:
    - _Color: {r: 1, g: 0.7721532, b: 0.5597015, a: 1}
    - _Emission: {r: 0.4402985, g: 0.4402985, b: 0.4402985, a: 0}
    - _SpecColor: {r: 0.96268654, g: 0.7954899, b: 0.04310539, a: 1}
    - _TintColor: {r: 0.98507464, g: 0.9042103, b: 0.9042103, a: 0.5019608}
