%YAML 1.1
%TAG !u! tag:unity3d.com,2011:
--- !u!74 &7400000
AnimationClip:
  m_ObjectHideFlags: 0
  m_CorrespondingSourceObject: {fileID: 0}
  m_PrefabInternal: {fileID: 0}
  m_Name: SD_skill_effect_002
  serializedVersion: 6
  m_Legacy: 0
  m_Compressed: 0
  m_UseHighQualityCurve: 1
  m_RotationCurves: []
  m_CompressedRotationCurves: []
  m_EulerCurves: []
  m_PositionCurves: []
  m_ScaleCurves: []
  m_FloatCurves: []
  m_PPtrCurves:
  - curve:
    - time: 0.33333334
      value: {fileID: 21300256, guid: c55d6dd5448b5dd4cbbfdc1a0b7cec8e, type: 3}
    - time: 0.375
      value: {fileID: 21300258, guid: c55d6dd5448b5dd4cbbfdc1a0b7cec8e, type: 3}
    - time: 0.41666666
      value: {fileID: 21300260, guid: c55d6dd5448b5dd4cbbfdc1a0b7cec8e, type: 3}
    - time: 0.45833334
      value: {fileID: 21300262, guid: c55d6dd5448b5dd4cbbfdc1a0b7cec8e, type: 3}
    - time: 0.5
      value: {fileID: 21300264, guid: c55d6dd5448b5dd4cbbfdc1a0b7cec8e, type: 3}
    - time: 0.5416667
      value: {fileID: 21300266, guid: c55d6dd5448b5dd4cbbfdc1a0b7cec8e, type: 3}
    - time: 0.5833333
      value: {fileID: 21300268, guid: c55d6dd5448b5dd4cbbfdc1a0b7cec8e, type: 3}
    - time: 0.625
      value: {fileID: 21300270, guid: c55d6dd5448b5dd4cbbfdc1a0b7cec8e, type: 3}
    - time: 0.6666667
      value: {fileID: 21300272, guid: c55d6dd5448b5dd4cbbfdc1a0b7cec8e, type: 3}
    - time: 0.7083333
      value: {fileID: 21300274, guid: c55d6dd5448b5dd4cbbfdc1a0b7cec8e, type: 3}
    - time: 0.75
      value: {fileID: 21300276, guid: c55d6dd5448b5dd4cbbfdc1a0b7cec8e, type: 3}
    - time: 0.7916667
      value: {fileID: 21300278, guid: c55d6dd5448b5dd4cbbfdc1a0b7cec8e, type: 3}
    - time: 0.8333333
      value: {fileID: 21300280, guid: c55d6dd5448b5dd4cbbfdc1a0b7cec8e, type: 3}
    - time: 0.875
      value: {fileID: 21300282, guid: c55d6dd5448b5dd4cbbfdc1a0b7cec8e, type: 3}
    - time: 0.9166667
      value: {fileID: 21300284, guid: c55d6dd5448b5dd4cbbfdc1a0b7cec8e, type: 3}
    - time: 0.9583333
      value: {fileID: 21300286, guid: c55d6dd5448b5dd4cbbfdc1a0b7cec8e, type: 3}
    - time: 1
      value: {fileID: 21300288, guid: c55d6dd5448b5dd4cbbfdc1a0b7cec8e, type: 3}
    - time: 1.0416666
      value: {fileID: 21300290, guid: c55d6dd5448b5dd4cbbfdc1a0b7cec8e, type: 3}
    - time: 1.0833334
      value: {fileID: 21300292, guid: c55d6dd5448b5dd4cbbfdc1a0b7cec8e, type: 3}
    - time: 1.125
      value: {fileID: 21300294, guid: c55d6dd5448b5dd4cbbfdc1a0b7cec8e, type: 3}
    - time: 1.1666666
      value: {fileID: 21300296, guid: c55d6dd5448b5dd4cbbfdc1a0b7cec8e, type: 3}
    - time: 1.2083334
      value: {fileID: 21300298, guid: c55d6dd5448b5dd4cbbfdc1a0b7cec8e, type: 3}
    - time: 1.25
      value: {fileID: 21300300, guid: c55d6dd5448b5dd4cbbfdc1a0b7cec8e, type: 3}
    - time: 1.2916666
      value: {fileID: 21300302, guid: c55d6dd5448b5dd4cbbfdc1a0b7cec8e, type: 3}
    - time: 1.3333334
      value: {fileID: 21300304, guid: c55d6dd5448b5dd4cbbfdc1a0b7cec8e, type: 3}
    - time: 1.375
      value: {fileID: 21300306, guid: c55d6dd5448b5dd4cbbfdc1a0b7cec8e, type: 3}
    - time: 1.4166666
      value: {fileID: 21300308, guid: c55d6dd5448b5dd4cbbfdc1a0b7cec8e, type: 3}
    - time: 1.4583334
      value: {fileID: 21300310, guid: c55d6dd5448b5dd4cbbfdc1a0b7cec8e, type: 3}
    - time: 1.5
      value: {fileID: 21300312, guid: c55d6dd5448b5dd4cbbfdc1a0b7cec8e, type: 3}
    - time: 1.5416666
      value: {fileID: 21300314, guid: c55d6dd5448b5dd4cbbfdc1a0b7cec8e, type: 3}
    - time: 1.5833334
      value: {fileID: 21300316, guid: c55d6dd5448b5dd4cbbfdc1a0b7cec8e, type: 3}
    - time: 1.625
      value: {fileID: 21300318, guid: c55d6dd5448b5dd4cbbfdc1a0b7cec8e, type: 3}
    attribute: m_Sprite
    path: 
    classID: 212
    script: {fileID: 0}
  m_SampleRate: 24
  m_WrapMode: 0
  m_Bounds:
    m_Center: {x: 0, y: 0, z: 0}
    m_Extent: {x: 0, y: 0, z: 0}
  m_ClipBindingConstant:
    genericBindings:
    - serializedVersion: 2
      path: 0
      attribute: 0
      script: {fileID: 0}
      typeID: 212
      customType: 23
      isPPtrCurve: 1
    pptrCurveMapping:
    - {fileID: 21300256, guid: c55d6dd5448b5dd4cbbfdc1a0b7cec8e, type: 3}
    - {fileID: 21300258, guid: c55d6dd5448b5dd4cbbfdc1a0b7cec8e, type: 3}
    - {fileID: 21300260, guid: c55d6dd5448b5dd4cbbfdc1a0b7cec8e, type: 3}
    - {fileID: 21300262, guid: c55d6dd5448b5dd4cbbfdc1a0b7cec8e, type: 3}
    - {fileID: 21300264, guid: c55d6dd5448b5dd4cbbfdc1a0b7cec8e, type: 3}
    - {fileID: 21300266, guid: c55d6dd5448b5dd4cbbfdc1a0b7cec8e, type: 3}
    - {fileID: 21300268, guid: c55d6dd5448b5dd4cbbfdc1a0b7cec8e, type: 3}
    - {fileID: 21300270, guid: c55d6dd5448b5dd4cbbfdc1a0b7cec8e, type: 3}
    - {fileID: 21300272, guid: c55d6dd5448b5dd4cbbfdc1a0b7cec8e, type: 3}
    - {fileID: 21300274, guid: c55d6dd5448b5dd4cbbfdc1a0b7cec8e, type: 3}
    - {fileID: 21300276, guid: c55d6dd5448b5dd4cbbfdc1a0b7cec8e, type: 3}
    - {fileID: 21300278, guid: c55d6dd5448b5dd4cbbfdc1a0b7cec8e, type: 3}
    - {fileID: 21300280, guid: c55d6dd5448b5dd4cbbfdc1a0b7cec8e, type: 3}
    - {fileID: 21300282, guid: c55d6dd5448b5dd4cbbfdc1a0b7cec8e, type: 3}
    - {fileID: 21300284, guid: c55d6dd5448b5dd4cbbfdc1a0b7cec8e, type: 3}
    - {fileID: 21300286, guid: c55d6dd5448b5dd4cbbfdc1a0b7cec8e, type: 3}
    - {fileID: 21300288, guid: c55d6dd5448b5dd4cbbfdc1a0b7cec8e, type: 3}
    - {fileID: 21300290, guid: c55d6dd5448b5dd4cbbfdc1a0b7cec8e, type: 3}
    - {fileID: 21300292, guid: c55d6dd5448b5dd4cbbfdc1a0b7cec8e, type: 3}
    - {fileID: 21300294, guid: c55d6dd5448b5dd4cbbfdc1a0b7cec8e, type: 3}
    - {fileID: 21300296, guid: c55d6dd5448b5dd4cbbfdc1a0b7cec8e, type: 3}
    - {fileID: 21300298, guid: c55d6dd5448b5dd4cbbfdc1a0b7cec8e, type: 3}
    - {fileID: 21300300, guid: c55d6dd5448b5dd4cbbfdc1a0b7cec8e, type: 3}
    - {fileID: 21300302, guid: c55d6dd5448b5dd4cbbfdc1a0b7cec8e, type: 3}
    - {fileID: 21300304, guid: c55d6dd5448b5dd4cbbfdc1a0b7cec8e, type: 3}
    - {fileID: 21300306, guid: c55d6dd5448b5dd4cbbfdc1a0b7cec8e, type: 3}
    - {fileID: 21300308, guid: c55d6dd5448b5dd4cbbfdc1a0b7cec8e, type: 3}
    - {fileID: 21300310, guid: c55d6dd5448b5dd4cbbfdc1a0b7cec8e, type: 3}
    - {fileID: 21300312, guid: c55d6dd5448b5dd4cbbfdc1a0b7cec8e, type: 3}
    - {fileID: 21300314, guid: c55d6dd5448b5dd4cbbfdc1a0b7cec8e, type: 3}
    - {fileID: 21300316, guid: c55d6dd5448b5dd4cbbfdc1a0b7cec8e, type: 3}
    - {fileID: 21300318, guid: c55d6dd5448b5dd4cbbfdc1a0b7cec8e, type: 3}
  m_AnimationClipSettings:
    serializedVersion: 2
    m_AdditiveReferencePoseClip: {fileID: 0}
    m_AdditiveReferencePoseTime: 0
    m_StartTime: 0
    m_StopTime: 1.6666666
    m_OrientationOffsetY: 0
    m_Level: 0
    m_CycleOffset: 0
    m_HasAdditiveReferencePose: 0
    m_LoopTime: 0
    m_LoopBlend: 0
    m_LoopBlendOrientation: 0
    m_LoopBlendPositionY: 0
    m_LoopBlendPositionXZ: 0
    m_KeepOriginalOrientation: 0
    m_KeepOriginalPositionY: 1
    m_KeepOriginalPositionXZ: 0
    m_HeightFromFeet: 0
    m_Mirror: 0
  m_EditorCurves: []
  m_EulerEditorCurves: []
  m_HasGenericRootTransform: 0
  m_HasMotionFloatCurves: 0
  m_GenerateMotionCurves: 0
  m_Events: []
